Text Analysis – jbat22.github.io
…
Speaking of defeating evil, how are all these children managing to go up against massive villains? In Harry Potter, they have the power of magic and wonder on their side, whereas in Percy Jackson they have to take it back to the good old days of swords and steel. Let’s look at what the most popular choices are for the children’s weapons and tools in these series.

First, we can see which spells in Harry Potter are most commonly used.

potter_tidy |>
  left_join(potter_spells, join_by(word == first_word)) |>
  filter(!is.na(spell)) |>
  count(spell_name, sort = TRUE)

# A tibble: 68 × 2
   spell_name           n
   <chr>            <int>
 1 Expecto Patronum    43
 2 Accio               33
 3 Expelliarmus        27
 4 Stupefy             27
 5 Avada Kedavra       23
 6 Lumos               22
 7 Riddikulus          17
 8 Crucio              15
 9 Impedimenta         13
10 Muffliato           11
# ℹ 58 more rows
…
